{
  "id": "c3f7e44e-98b3-4d7b-b99a-5fb00b8b281b",
  "status": "INITIATED",
  "contactPerson": {
    "id": "6437f540-ec18-4422-8e1a-db4dfbef8a99",
    "capacity": "FOUNDER",
    "surname": "Jonas",
    "name": "Liekens",
    "telephoneNr": "0470540890",
    "email": "jonas.liekens@brickbit.be",
    "placeOfBirth": "Bonheiden",
    "dateOfBirth": "1991-05-04",
    "martialStatus": "MARRIED",
    "maritalContract": "COMMUNITY_OF_GOODS_CONTRACT",
    "significantOther": {
      "surname": "Ellen",
      "name": "De Maesschalck"
    },
    "street": "Haachtsebaan",
    "houseNumber": "63",
    "city": "Putte",
    "postCode": "2580",
    "countryCode": "BE"
  }
}
